<?xml version="1.0" encoding="UTF-8"?>
<svg width="16px" height="18px" viewBox="0 0 16 18" version="1.1" xmlns="http://www.w3.org/2000/svg" xmlns:xlink="http://www.w3.org/1999/xlink">
    <!-- Generator: Sketch 61 (89581) - https://sketch.com -->
    <title>Fill 1</title>
    <desc>Created with Sketch.</desc>
    <g id="New" stroke="none" stroke-width="1" fill="none" fill-rule="evenodd">
        <g id="Architecture/details" transform="translate(-1199.000000, -942.000000)" fill="#000000">
            <path d="M1212.41935,954.705882 C1211.85161,954.705882 1211.33548,954.917647 1210.87097,955.235294 L1204.10968,951.264706 C1204.10968,951.158824 1204.16129,951.052941 1204.16129,951 C1204.16129,950.947059 1204.16129,950.788235 1204.10968,950.735294 L1210.87097,946.764706 C1211.28387,947.082353 1211.85161,947.294118 1212.41935,947.294118 C1213.86452,947.294118 1215,946.129412 1215,944.647059 C1215,943.164706 1213.86452,942 1212.41935,942 C1210.97419,942 1209.83871,943.164706 1209.83871,944.647059 C1209.83871,944.752941 1209.83871,944.805882 1209.89032,944.911765 L1203.12903,948.882353 C1202.71613,948.564706 1202.2,948.352941 1201.58065,948.352941 C1200.13548,948.352941 1199,949.517647 1199,951 C1199,952.482353 1200.13548,953.647059 1201.58065,953.647059 C1202.14839,953.647059 1202.66452,953.435294 1203.12903,953.117647 L1209.89032,957.088235 C1209.89032,957.194118 1209.83871,957.247058 1209.83871,957.352941 C1209.83871,958.835294 1210.97419,960 1212.41935,960 C1213.86452,960 1215,958.835294 1215,957.352941 C1215,955.870589 1213.86452,954.705882 1212.41935,954.705882 Z" id="Fill-1"></path>
        </g>
    </g>
</svg>