<?xml version="1.0" encoding="UTF-8"?>
<svg width="18px" height="16px" viewBox="0 0 18 16" version="1.1" xmlns="http://www.w3.org/2000/svg" xmlns:xlink="http://www.w3.org/1999/xlink">
    <!-- Generator: Sketch 61 (89581) - https://sketch.com -->
    <title>Fill 1</title>
    <desc>Created with Sketch.</desc>
    <g id="New" stroke="none" stroke-width="1" fill="none" fill-rule="evenodd">
        <g id="Architecture/details" transform="translate(-1197.000000, -815.000000)" fill="#000000">
            <path d="M1214.474,817.187929 C1213.89142,816.125462 1210.237,812.566197 1206,817.719162 C1201.55115,812.566197 1198.10858,816.125462 1197.526,817.187929 C1196.46675,819.153493 1197.1023,822.1284 1198.58525,823.562731 L1206,831 L1213.41475,823.562731 C1214.8977,822.1284 1215.53325,819.153493 1214.474,817.187929 Z" id="Fill-1"></path>
        </g>
    </g>
</svg>