<?xml version="1.0" encoding="UTF-8"?>
<svg width="46px" height="31px" viewBox="0 0 46 31" version="1.1" xmlns="http://www.w3.org/2000/svg" xmlns:xlink="http://www.w3.org/1999/xlink">
    <!-- Generator: Sketch 61 (89581) - https://sketch.com -->
    <title>map view</title>
    <desc>Created with Sketch.</desc>
    <g id="New" stroke="none" stroke-width="1" fill="none" fill-rule="evenodd">
        <g id="Architecture/overview" transform="translate(-1363.000000, -106.000000)">
            <g id="map-view" transform="translate(1363.000000, 106.000000)">
                <path d="M23.5,0 C18.7863636,0 15,3.78636364 15,8.5 C15,13.2136364 23.5,24.7272727 23.5,24.7272727 C23.5,24.7272727 32,13.2136364 32,8.5 C32,3.78636364 28.2136364,0 23.5,0 Z M23.5,12.3636364 C21.3363636,12.3636364 19.6363636,10.6636364 19.6363636,8.5 C19.6363636,6.33636364 21.3363636,4.63636364 23.5,4.63636364 C25.6636364,4.63636364 27.3636364,6.33636364 27.3636364,8.5 C27.3636364,10.6636364 25.6636364,12.3636364 23.5,12.3636364 Z" id="Fill-1" fill="#000000"></path>
                <ellipse id="Oval" fill="#231F20" fill-rule="nonzero" opacity="0.056640625" cx="23" cy="25" rx="23" ry="6"></ellipse>
            </g>
        </g>
    </g>
</svg>