<?xml version="1.0" encoding="UTF-8"?>
<svg width="49px" height="40px" viewBox="0 0 49 40" version="1.1" xmlns="http://www.w3.org/2000/svg" xmlns:xlink="http://www.w3.org/1999/xlink">
    <!-- Generator: Sketch 61 (89581) - https://sketch.com -->
    <title>Group 4</title>
    <desc>Created with Sketch.</desc>
    <g id="Symbols" stroke="none" stroke-width="1" fill="none" fill-rule="evenodd">
        <g id="Logo" transform="translate(-2.000000, -12.000000)" fill-rule="nonzero">
            <g id="Group-4" transform="translate(3.000000, 12.000000)">
                <polygon id="Path-13" fill="#FFFFFF" points="0.98046875 16.7480469 17.954834 13.0183105 23.6506348 15.121582 24.168457 18.8994141 28.2036133 20.3408203 28.2036133 23.7026367 32.458252 25.5383301 32.3535156 29.3012695 36.2036133 30.3598633 36.2036133 33.8701172 20.2036133 37.9155273 20.2036133 34.4052734 16.3535156 33.3466797 16.3535156 29.074707 12.4545898 27.9772949 12.6708984 24.4399414 8.16845703 22.9448242 8.16845703 19.1669922"></polygon>
                <polyline id="Path-10" stroke="#000000" stroke-linecap="round" stroke-linejoin="round" points="20.2036133 38.9155273 36.2036133 34.5336914 36.2036133 30.3598633 32.3535156 29.3012695 32.3535156 25.0292969 28.4545898 23.9318848 28.4545898 20.0693359 24.168457 18.8994141 24.168457 15.121582"></polyline>
                <polygon id="Path-10" stroke="#000000" stroke-linecap="round" stroke-linejoin="round" points="2.30926389e-14 16.7480469 2.30926389e-14 32.4125977 20.2036133 38.9155273 20.2036133 34.4052734 16.3535156 33.3466797 16.3535156 29.074707 12.4545898 27.9772949 12.4545898 24.1147461 8.16845703 22.9448242 8.16845703 19.1669922"></polygon>
                <polyline id="Path-11" stroke="#000000" stroke-linecap="round" stroke-linejoin="round" points="3.55271368e-15 16.7480469 21.5354004 11.8137207 24.168457 12.6894531 24.168457 15.121582 8.16845703 19.1669922"></polyline>
                <polygon id="Path-14" fill="#000000" points="8.16845703 22.5776367 24.2255859 18.5544434 28.626709 20.3901367 12.6708984 24.4399414"></polygon>
                <polygon id="Path-14" fill="#000000" points="12 27.7258301 28.0571289 23.7026367 32.458252 25.5383301 16.5024414 29.5881348"></polygon>
                <polygon id="Path-14" fill="#000000" points="16 32.7258301 32.0571289 28.7026367 36.458252 30.5383301 20.5024414 34.5881348"></polygon>
                <polygon id="Path-12" stroke="#000000" stroke-linecap="round" stroke-linejoin="round" points="36.2036133 34.5336914 46.5063477 31.6230469 46.5063477 1.4309082 36.2036133 4.16650391"></polygon>
                <polygon id="Rectangle" fill="#000000" points="31.8360596 2.72290039 42.5605469 4.18172441e-14 46.6860352 0.96887207 36.6308594 4.01025391"></polygon>
                <polyline id="Path-15" stroke="#000000" stroke-linecap="round" stroke-linejoin="round" points="24.168457 19.1669922 24.168457 11.0278176 28.1587256 12.1826172 28.1587256 7.2746582 32.0289115 8.34619141 32.0289115 3.16699219 36.168457 3.98268711"></polyline>
                <polygon id="Path-16" fill="#000000" points="24.168457 10.5649414 27.9443359 9.33776855 28.2036133 12.1053467"></polygon>
                <polygon id="Path-16" fill="#000000" points="28 6.92980957 31.7758789 5.70263672 32.0351563 8.47021484"></polygon>
            </g>
        </g>
    </g>
</svg>